{
  "title": "Les Ratinos n°3",
  "guidelines": [
    "Surligne en <span class=\"blue\">bleu</span> tous les substituts des Ratinos.",
    "Surligne en <span class=\"green\">vert</span> tous les substituts de l'éléphant.",
    "Surligne en <span class=\"purple\">violet</span> tous les substituts du serpent."
  ],
  "chains": [
    {
      "value": "ratinos",
      "label": "Les Ratinos",
      "color": "#3cb0e0"
    },
    {
      "value": "éléphant",
      "label": "L'éléphant",
      "color": "#5ed155"
    },
    {
      "value": "serpent",
      "label": "Le serpent",
      "color": "#b667fc"
    }
  ],
  "sample": "« Pas touche », s'écria-t-<span class=\"green\">il</span> en sautant sur <span class=\"purple\">le reptile affamé</span>.",
  "solution": {
    "ratinos": [
      6,
      8,
      126,
      128,
      153,
      155,
      234,
      236,
      278,
      280,
      308,
      326
    ],
    "éléphant": [
      38,
      68,
      70,
      96,
      98,
      159,
      161,
      163,
      171,
      204,
      218,
      290,
      292,
      302
    ],
    "serpent": [
      116,
      118,
      120,
      122,
      212,
      214,
      216,
      242,
      244,
      246
    ]
  }
}
