{
  "title": "Le singe et le crocodile",
  "guidelines": [
    "Surligne en <span class=\"purple\">violet</span> tous les substituts du singe.",
    "Surligne en <span class=\"blue\">bleu</span> tous les substituts du crocodile."
  ],
  "chains": [
    {
      "value": "singe",
      "label": "Le singe",
      "color": "#b667fc"
    },
    {
      "value": "crocodile",
      "label": "Le crocodile",
      "color": "#6397ff"
    }
  ],
  "sample": "« Bonjour <span class=\"purple\">le singe</span>, viens avec <span class=\"blue\">moi</span> jusqu'à l'île aux fruits mûrs. »",
  "solution": {
    "singe": [
      0,
      2,
      242,
      244,
      268,
      314,
      316,
      339,
      341,
      368,
      378,
      380,
      383,
      406,
      416,
      422,
      424,
      446,
      478,
      488,
      490,
      493,
      499,
      505,
      524,
      526,
      540,
      554,
      586,
      588,
      609,
      628,
      644,
      690,
      710,
      712,
      715,
      729,
      747,
      755,
      788,
      790,
      861,
      868,
      870,
      874,
      941,
      943,
      953,
      967,
      991,
      1011
    ],
    "crocodile": [
      74,
      76,
      79,
      81,
      115,
      117,
      119,
      130,
      140,
      174,
      189,
      197,
      199,
      201,
      215,
      222,
      230,
      236,
      300,
      302,
      320,
      332,
      347,
      370,
      374,
      398,
      400,
      404,
      420,
      454,
      456,
      465,
      467,
      476,
      484,
      511,
      574,
      576,
      590,
      605,
      613,
      624,
      648,
      650,
      671,
      684,
      698,
      706,
      738,
      740,
      784,
      795,
      857,
      859,
      872,
      912,
      937,
      995,
      997,
      1028
    ]
  }
}
